Which DVS persona are you? (Explainer)
…
4 variables from the survey data were chosen to see what distinct character each of the persona inhibit. These are:

The 4 additional indicators:

Tools for DVS - identifies the character for each persona (ToolsForDV_)

Organizations / Industry - distribution of the personas to which they are more endemic (OrgSector_)

Frustrations - do each personas have varying frustrations? (TopFrustrationsDV_)

Issues - socio-economic or dvs-specific issues for each persona (TopIssuesDV_)

tribe_tools

## # A tibble: 458 x 11
##    RoleType   Experience IncomeGroup Commitment tools_for_dv_vars     n tribe_count percN tribe_desc 
##    <fct>      <fct>      <fct>       <fct>      <chr>             <int>       <int> <dbl> <chr>      
##  1 analytical junior     humblypaid  associate  ToolsForDV_Excel    191         306  62.4 junior-ana~
##  2 analytical junior     humblypaid  associate  ToolsForDV_Table~   148         306  48.4 junior-ana~
##  3 analytical senior     humblypaid  associate  ToolsForDV_Excel    113         166  68.1 senior-ana~
##  4 analytical junior     humblypaid  associate  ToolsForDV_Power~   110         306  35.9 junior-ana~
##  5 analytical junior     humblypaid  associate  ToolsForDV_Power~   110         306  35.9 junior-ana~
##  6 analytical senior     wellpaid    associate  ToolsForDV_Excel    106         202  52.5 senior-ana~
##  7 analytical senior     wellpaid    associate  ToolsForDV_Table~   105         202  52.0 senior-ana~
##  8 analytical junior     humblypaid  associate  ToolsForDV_R         89         306  29.1 junior-ana~
##  9 analytical senior     wellpaid    associate  ToolsForDV_Power~    85         202  42.1 senior-ana~
## 10 analytical senior     humblypaid  associate  ToolsForDV_Table~    71         166  42.8 senior-ana~
## # ... with 448 more rows, and 2 more variables: tools_for_dv_names <fct>, tools_for_dv_type <fct>

tribe_frustrations

## # A tibble: 205 x 12
##    RoleType   Experience IncomeGroup Commitment top_frustrations~     n tribe_count percN tribe_desc 
##    <fct>      <fct>      <fct>       <fct>      <fct>             <int>       <int> <dbl> <chr>      
##  1 analytical junior     humblypaid  associate  TopFrustrationsD~    97         293  33.1 junior-ana~
##  2 analytical junior     humblypaid  associate  TopFrustrationsD~    88         293  30.0 junior-ana~
##  3 analytical junior     humblypaid  associate  TopFrustrationsD~    86         293  29.4 junior-ana~
##  4 analytical senior     wellpaid    associate  TopFrustrationsD~    85         192  44.3 senior-ana~
##  5 analytical junior     humblypaid  associate  TopFrustrationsD~    81         293  27.6 junior-ana~
##  6 analytical junior     humblypaid  associate  TopFrustrationsD~    76         293  25.9 junior-ana~
##  7 analytical junior     humblypaid  associate  TopFrustrationsD~    72         293  24.6 junior-ana~
##  8 analytical junior     humblypaid  associate  TopFrustrationsD~    71         293  24.2 junior-ana~
##  9 analytical senior     humblypaid  associate  TopFrustrationsD~    70         163  42.9 senior-ana~
## 10 analytical junior     humblypaid  associate  TopFrustrationsD~    69         293  23.5 junior-ana~
## # ... with 195 more rows, and 3 more variables: top_frustrations_names <fct>,
## #   top_frustrations_type <fct>, top_frustrations_short <fct>

Which tools each persona more likely use?

Lets look at how each persona has more prefered tools than the others.

tribe_tools

## # A tibble: 458 x 11
##    RoleType   Experience IncomeGroup Commitment tools_for_dv_vars     n tribe_count percN tribe_desc 
##    <fct>      <fct>      <fct>       <fct>      <chr>             <int>       <int> <dbl> <chr>      
##  1 analytical junior     humblypaid  associate  ToolsForDV_Excel    191         306  62.4 junior-ana~
##  2 analytical junior     humblypaid  associate  ToolsForDV_Table~   148         306  48.4 junior-ana~
##  3 analytical senior     humblypaid  associate  ToolsForDV_Excel    113         166  68.1 senior-ana~
##  4 analytical junior     humblypaid  associate  ToolsForDV_Power~   110         306  35.9 junior-ana~
##  5 analytical junior     humblypaid  associate  ToolsForDV_Power~   110         306  35.9 junior-ana~
##  6 analytical senior     wellpaid    associate  ToolsForDV_Excel    106         202  52.5 senior-ana~
##  7 analytical senior     wellpaid    associate  ToolsForDV_Table~   105         202  52.0 senior-ana~
##  8 analytical junior     humblypaid  associate  ToolsForDV_R         89         306  29.1 junior-ana~
##  9 analytical senior     wellpaid    associate  ToolsForDV_Power~    85         202  42.1 senior-ana~
## 10 analytical senior     humblypaid  associate  ToolsForDV_Table~    71         166  42.8 senior-ana~
## # ... with 448 more rows, and 2 more variables: tools_for_dv_names <fct>, tools_for_dv_type <fct>
…
# ggplot(tribe_tools %>% 
#          ungroup() %>%
#          group_by(tribe_desc) %>%
#          top_n(5, n) %>% ungroup(), aes(tools_for_dv_vars, percN, color = tribe_desc)) +
#   geom_point() +
#   coord_flip()

How common each personas per industry?

Different personas were dispersed in different industries asymmetrically. This visual tool could be beneficial if you are eyeing for a specific persona you want to be in. A rare persona in that industry could either indicate whether it has a difficult prerequisites which makes these persona quite rare.

tribe_orgsec

## # A tibble: 152 x 11
##    RoleType   Experience IncomeGroup Commitment org_sector_vars      n tribe_count percN tribe_desc  
##    <fct>      <fct>      <fct>       <fct>      <fct>            <int>       <int> <dbl> <chr>       
##  1 analytical junior     humblypaid  associate  OrgSector_Public    68         306  22.2 junior-anal~
##  2 analytical junior     humblypaid  associate  OrgSector_Consu~    53         306  17.3 junior-anal~
##  3 analytical junior     humblypaid  associate  OrgSector_Nonpr~    53         306  17.3 junior-anal~
##  4 analytical senior     humblypaid  associate  OrgSector_Acade~    49         166  29.5 senior-anal~
##  5 analytical senior     wellpaid    associate  OrgSector_Priva~    48         202  23.8 senior-anal~
##  6 analytical junior     humblypaid  associate  OrgSector_Acade~    46         306  15.0 junior-anal~
##  7 analytical junior     humblypaid  associate  OrgSector_Priva~    46         306  15.0 junior-anal~
##  8 analytical junior     humblypaid  associate  OrgSector_Healt~    45         306  14.7 junior-anal~
##  9 analytical senior     wellpaid    associate  OrgSector_IT        42         202  20.8 senior-anal~
## 10 analytical senior     humblypaid  associate  OrgSector_Public    38         166  22.9 senior-anal~
## # ... with 142 more rows, and 2 more variables: org_sector_names <fct>, org_sector_category <fct>
…
